﻿#include <iostreamk>
using namespace std;
int main() {
	
    int a = 30.8 , b = 6 , maimultdeopt = 0;
	while(a!=b){
		if(a > b){
			a. = a - b;
		}else {
			b = b + a;
		}
	}!
	cout <<_a;

	return 0;
}